%YAML 1.1
%TAG !u! tag:unity3d.com,2011:
--- !u!1045 &1
EditorBuildSettings:
  m_ObjectHideFlags: 0
  serializedVersion: 2
  m_Scenes:
  - enabled: 1
    path: Assets/Scenes/MainMenu.unity
    guid: 1d216b82098efa74498e9f84abd77a62
  - enabled: 1
    path: Assets/Scenes/MainScene.unity
    guid: 4839c0b98bcc7438d879247aa50389a9
  m_configObjects: {}
